%YAML 1.1
%TAG !u! tag:unity3d.com,2011:
--- !u!64 &1113575148
MeshCollider:
  m_ObjectHideFlags: 0
  m_CorrespondingSourceObject: {fileID: 0}
  m_PrefabInstance: {fileID: 0}
  m_PrefabAsset: {fileID: 0}
  m_GameObject: {fileID: 5514551453813568289}
  m_Material: {fileID: 0}
  m_IsTrigger: 0
  m_Enabled: 1
  serializedVersion: 3
  m_Convex: 0
  m_CookingOptions: 30
  m_Mesh: {fileID: 8150292036014260416, guid: 6ba9f00cc605da949a29ae2a6db7be0c, type: 3}
--- !u!1001 &4586478898755447336
PrefabInstance:
  m_ObjectHideFlags: 0
  serializedVersion: 2
  m_Modification:
    m_TransformParent: {fileID: 0}
    m_Modifications:
    - target: {fileID: -4216859302048453862, guid: 6ba9f00cc605da949a29ae2a6db7be0c,
        type: 3}
      propertyPath: m_LocalPosition.x
      value: -4.566514
      objectReference: {fileID: 0}
    - target: {fileID: -4216859302048453862, guid: 6ba9f00cc605da949a29ae2a6db7be0c,
        type: 3}
      propertyPath: m_LocalPosition.y
      value: 0.29930463
      objectReference: {fileID: 0}
    - target: {fileID: -4216859302048453862, guid: 6ba9f00cc605da949a29ae2a6db7be0c,
        type: 3}
      propertyPath: m_LocalPosition.z
      value: -3.6548195
      objectReference: {fileID: 0}
    - target: {fileID: -4216859302048453862, guid: 6ba9f00cc605da949a29ae2a6db7be0c,
        type: 3}
      propertyPath: m_LocalRotation.x
      value: 0.000000081460335
      objectReference: {fileID: 0}
    - target: {fileID: -4216859302048453862, guid: 6ba9f00cc605da949a29ae2a6db7be0c,
        type: 3}
      propertyPath: m_LocalRotation.y
      value: 0
      objectReference: {fileID: 0}
    - target: {fileID: -4216859302048453862, guid: 6ba9f00cc605da949a29ae2a6db7be0c,
        type: 3}
      propertyPath: m_LocalRotation.z
      value: -0
      objectReference: {fileID: 0}
    - target: {fileID: -4216859302048453862, guid: 6ba9f00cc605da949a29ae2a6db7be0c,
        type: 3}
      propertyPath: m_LocalRotation.w
      value: 1
      objectReference: {fileID: 0}
    - target: {fileID: -4216859302048453862, guid: 6ba9f00cc605da949a29ae2a6db7be0c,
        type: 3}
      propertyPath: m_RootOrder
      value: 0
      objectReference: {fileID: 0}
    - target: {fileID: -4216859302048453862, guid: 6ba9f00cc605da949a29ae2a6db7be0c,
        type: 3}
      propertyPath: m_LocalEulerAnglesHint.x
      value: 0
      objectReference: {fileID: 0}
    - target: {fileID: -4216859302048453862, guid: 6ba9f00cc605da949a29ae2a6db7be0c,
        type: 3}
      propertyPath: m_LocalEulerAnglesHint.y
      value: 0
      objectReference: {fileID: 0}
    - target: {fileID: -4216859302048453862, guid: 6ba9f00cc605da949a29ae2a6db7be0c,
        type: 3}
      propertyPath: m_LocalEulerAnglesHint.z
      value: 0
      objectReference: {fileID: 0}
    - target: {fileID: -927199367670048503, guid: 6ba9f00cc605da949a29ae2a6db7be0c,
        type: 3}
      propertyPath: m_Name
      value: map1
      objectReference: {fileID: 0}
    m_RemovedComponents: []
  m_SourcePrefab: {fileID: 100100000, guid: 6ba9f00cc605da949a29ae2a6db7be0c, type: 3}
--- !u!1 &5514551453813568289 stripped
GameObject:
  m_CorrespondingSourceObject: {fileID: -927199367670048503, guid: 6ba9f00cc605da949a29ae2a6db7be0c,
    type: 3}
  m_PrefabInstance: {fileID: 4586478898755447336}
  m_PrefabAsset: {fileID: 0}
